{
	"name": { "ascii": "vodoley", "ru_RU": "Водолей" },
	"methods": [
		{ "name": {"ascii": "fill A", "ru_RU": "наполни A" }},
		{ "name": {"ascii": "fill B", "ru_RU": "наполни B" } },
		{ "name": {"ascii": "fill C", "ru_RU": "наполни C" } },
        
		{ "name": {"ascii": "empty A", "ru_RU": "вылей A" } },
		{ "name": {"ascii": "empty B", "ru_RU": "вылей B" } },
        { "name": {"ascii": "empty C", "ru_RU": "вылей C" } },	
        
        { "name": {"ascii": "from A to B", "ru_RU": "перелей из A в B" } },	
        { "name": {"ascii": "from A to C", "ru_RU": "перелей из A в C" } },	
        { "name": {"ascii": "from B to A", "ru_RU": "перелей из B в A" } },	
        { "name": {"ascii": "from B to C", "ru_RU": "перелей из B в C" } },	
        { "name": {"ascii": "from C to B", "ru_RU": "перелей из C в B" } },	
        { "name": {"ascii": "from C to A", "ru_RU": "перелей из C в A" } },	


		{
			"name": {"ascii": "task complited", "ru_RU": "@решено"},
			"async": false,
			"returnType": "bool"
		},
        {
			"name": {"ascii": "size A", "ru_RU": "размер A"},
			"async": false,
			"returnType": "int"
		},
                {
			"name": {"ascii": "size B", "ru_RU": "размер B"},
			"async": false,
			"returnType": "int"
		},
                {
			"name": {"ascii": "size C", "ru_RU": "размер C"},
			"async": false,
			"returnType": "int"
		}
	],
	"gui": {
		"windows": [
			{ "role": "main", "icon": "vodoley" },
			{ "role": "pult", "icon": "vodoley-pult" }
		],
		"menus": [
			{
				"title": { "ascii": "Vodoley", "ru_RU": "Водолей" },
				"items": [
					{
						"title": {
							"ascii": "Load Environment...", 
		                    "ru_RU": "Загрузить задание..."
		                },
						"icon": "file-open"
					},	
                    {
						"title": {
							"ascii": "Load Rescent...", 
		                    "ru_RU": "Недавние задания"
		                },
						"icon": "file-rescent"
					},
					{
						"title": {
							"ascii": "Revert Environment", 
		                    "ru_RU": "Вернуть исходное задание"
		                },
						"icon": "file-revert"
					},
					{
						"title": {
							"ascii": "Save Environment...", 
		                    "ru_RU": "Сохранить..."
		                },
						"icon": "file-save-as"
					},
                                                      {
                          "title": {
                          "ascii": "New Environment...", 
                          "ru_RU": "Новое задание…"
                          },
                          "icon": "file-new"
                          }
				]
			}
		]
        }
}
